F:\Projects\iMeet\iMeet_Automation\Regression\RegressionTestSuite\src\com\pageobject\Login_Page.java
F:\Projects\iMeet\iMeet_Automation\Regression\RegressionTestSuite\src\com\client\login\IM_25895_Login_12.java
F:\Projects\iMeet\iMeet_Automation\Regression\RegressionTestSuite\src\com\utilities\TakeScreenShot.java
F:\Projects\iMeet\iMeet_Automation\Regression\RegressionTestSuite\src\com\client\login\IM_10526_Login_01.java
F:\Projects\iMeet\iMeet_Automation\Regression\RegressionTestSuite\src\com\utilities\TestData.java
F:\Projects\iMeet\iMeet_Automation\Regression\RegressionTestSuite\src\com\client\login\IM_25893_Login_11.java
F:\Projects\iMeet\iMeet_Automation\Regression\RegressionTestSuite\src\com\utilities\MyListener.java
F:\Projects\iMeet\iMeet_Automation\Regression\RegressionTestSuite\src\com\client\login\IM_10530_Login_05.java
F:\Projects\iMeet\iMeet_Automation\Regression\RegressionTestSuite\src\com\client\login\IM_10534_Login_09.java
F:\Projects\iMeet\iMeet_Automation\Regression\RegressionTestSuite\src\com\config\ChooseBrowser.java
F:\Projects\iMeet\iMeet_Automation\Regression\RegressionTestSuite\src\com\utilities\ReadData.java
